,junit_time,junit_power,junit_energy,assertj_time,assertj_power,assertj_energy
0,9.997737,18.471966,184.677856,10.835573,14.249466,154.401123
1,10.291066,15.791736,162.513794,11.023121,16.416589,180.962036
2,10.407322,15.155117,157.724182,12.125182,15.300411,185.520264
3,10.688333,15.36732,164.251038,11.546697,14.405658,166.337769
4,10.573215,15.329453,162.081604,11.838459,14.508141,171.754028
5,12.32723,18.129875,223.49115,11.362386,16.560862,188.170898
6,10.380317,15.315053,158.975098,11.570555,14.324444,165.74176
7,9.992033,15.692018,156.795166,12.318114,15.412295,189.850403
8,9.603985,16.488949,158.359619,12.044441,14.450031,174.042542
9,10.480156,15.336642,160.730408,11.938863,14.249851,170.127014
10,10.514455,15.190421,159.718994,11.194763,14.458371,161.858032
11,10.598113,15.491079,164.176208,13.07184,14.240182,186.145386
12,10.617406,15.24626,161.875732,11.729814,14.324101,168.019043
13,12.220546,15.660157,191.375671,11.75291,14.529294,170.761475
14,10.199236,16.056494,163.763977,11.436709,14.618097,167.182922
15,10.703481,15.542109,166.354675,12.044987,14.490578,174.538818
16,10.392087,16.261404,168.989929,11.843783,14.36387,170.122559
17,10.176092,17.518586,178.270752,12.129955,15.087358,183.008972
18,10.295459,15.438929,158.950867,11.898393,14.610978,173.847168
19,10.681884,15.146997,161.798462,11.839866,14.524382,171.966736
20,9.704287,16.23523,157.551331,11.254426,14.401669,162.08252
21,10.386332,15.505379,161.044006,11.953833,15.01856,179.529358
22,11.385888,15.611838,177.754639,11.514467,14.419551,166.033447
23,10.389669,15.202873,157.95282,11.659096,16.454626,191.846069
24,10.305597,15.3915,158.618591,13.443864,15.326231,206.043762
25,10.276283,15.735625,161.703735,11.631263,14.657237,170.482178
26,9.787226,18.24841,178.601318,12.338833,14.486536,178.746948
27,10.39267,15.563103,161.742188,11.537472,15.334153,176.917358
28,10.401194,15.142974,157.505005,11.561576,14.663551,169.533752
29,10.791378,15.194762,163.972412,11.821786,14.342778,169.557251
